Run: 304562

https://cmsoms.cern.ch/cms/triggers/hlt_report?cms_run=304562

HLT_PFHT300PT30_QuadPFJet_75_60_45_40_TriplePFBTagCSV_3p0_v:
 L1_QuadJet60er3p0
 L1_QuadJet50er3p0
 L1_HTT280er
 L1_HTT300er
 L1_HTT320er
 L1_HTT340er
 L1_HTT380er
 L1_HTT400er
 L1_HTT450er
 L1_HTT500er
 L1_HTT250er_QuadJet_70_55_40_35_er2p5
 L1_HTT280er_QuadJet_70_55_40_35_er2p5
 L1_HTT300er_QuadJet_70_55_40_35_er2p5
 L1_HTT320er_QuadJet_70_55_40_40_er2p4
 L1_HTT320er_QuadJet_70_55_40_40_er2p5
 L1_HTT340er_QuadJet_70_55_40_40_er2p5

HLT_PFHT380_SixPFJet32_DoublePFBTagCSV_2p2_v:
 L1_HTT280er
 L1_HTT300er
 L1_HTT320er
 L1_HTT340er
 L1_HTT380er
 L1_HTT400er
 L1_HTT450er
 L1_HTT500er
 L1_HTT250er_QuadJet_70_55_40_35_er2p5
 L1_HTT280er_QuadJet_70_55_40_35_er2p5
 L1_HTT300er_QuadJet_70_55_40_35_er2p5
 L1_HTT320er_QuadJet_70_55_40_40_er2p4
 L1_HTT320er_QuadJet_70_55_40_40_er2p5
 L1_HTT340er_QuadJet_70_55_40_40_er2p5

HLT_PFHT430_SixPFJet40_PFBTagCSV_1p5_v:
 L1_HTT280er
 L1_HTT300er
 L1_HTT320er
 L1_HTT340er
 L1_HTT380er
 L1_HTT400er
 L1_HTT450er
 L1_HTT500er
 L1_HTT250er_QuadJet_70_55_40_35_er2p5
 L1_HTT280er_QuadJet_70_55_40_35_er2p5
 L1_HTT300er_QuadJet_70_55_40_35_er2p5
 L1_HTT320er_QuadJet_70_55_40_40_er2p4
 L1_HTT320er_QuadJet_70_55_40_40_er2p5
 L1_HTT340er_QuadJet_70_55_40_40_er2p5

HLT_PFHT1050_v:
 L1_HTT120er
 L1_HTT160er
 L1_HTT200er
 L1_HTT220er
 L1_HTT240er
 L1_HTT250er_QuadJet_70_55_40_35_er2p5
 L1_HTT255er
 L1_HTT270er
 L1_HTT280er
 L1_HTT280er_QuadJet_70_55_40_35_er2p5
 L1_HTT300er
 L1_HTT300er_QuadJet_70_55_40_35_er2p5
 L1_HTT320er
 L1_HTT340er
 L1_HTT380er
 L1_HTT400er
 L1_HTT450er
 L1_HTT500er

HLT_Ele28_eta2p1_WPTight_Gsf_HT150_v:
 L1_LooseIsoEG24er2p1_HTT100er
 L1_LooseIsoEG26er2p1_HTT100er
 L1_LooseIsoEG28er2p1_HTT100er
 L1_SingleEG24
 L1_SingleEG26
 L1_SingleEG30
 L1_SingleEG32
 L1_SingleEG34
 L1_SingleEG36
 L1_SingleEG38
 L1_SingleEG40
 L1_SingleEG42
 L1_SingleEG45
 L1_SingleEG50
 L1_SingleEG34er2p1
 L1_SingleEG36er2p1
 L1_SingleEG38er2p1
 L1_SingleIsoEG24er2p1
 L1_SingleIsoEG26er2p1
 L1_SingleIsoEG28er2p1
 L1_SingleIsoEG30er2p1
 L1_SingleIsoEG32er2p1
 L1_SingleIsoEG34er2p1
 L1_SingleIsoEG36er2p1
 L1_SingleIsoEG24
 L1_SingleIsoEG26
 L1_SingleIsoEG28
 L1_SingleIsoEG30
 L1_SingleIsoEG32
 L1_SingleIsoEG34
 L1_SingleIsoEG36
 L1_SingleIsoEG38

HLT_Ele30_eta2p1_WPTight_Gsf_CentralPFJet35_EleCleaned_v:
 L1_LooseIsoEG26er2p1_Jet34er3p0_dR_Min0p3
 L1_LooseIsoEG28er2p1_Jet34er3p0_dR_Min0p3
 L1_LooseIsoEG30er2p1_Jet34er3p0_dR_Min0p3
 L1_SingleEG24
 L1_SingleEG26
 L1_SingleEG30
 L1_SingleEG32
 L1_SingleEG34
 L1_SingleEG36
 L1_SingleEG38
 L1_SingleEG40
 L1_SingleEG42
 L1_SingleEG45
 L1_SingleEG50
 L1_SingleEG34er2p1
 L1_SingleEG36er2p1
 L1_SingleEG38er2p1
 L1_SingleIsoEG24er2p1
 L1_SingleIsoEG26er2p1
 L1_SingleIsoEG28er2p1
 L1_SingleIsoEG30er2p1
 L1_SingleIsoEG32er2p1
 L1_SingleIsoEG34er2p1
 L1_SingleIsoEG36er2p1
 L1_SingleIsoEG24
 L1_SingleIsoEG26
 L1_SingleIsoEG28
 L1_SingleIsoEG30
 L1_SingleIsoEG32
 L1_SingleIsoEG34
 L1_SingleIsoEG36
 L1_SingleIsoEG38
